{"items":[{"productId":"9574203e-6d96-453b-ae02-cd6becef5873","slug":"fast-cheap-core-i3-i5-laptop-8gb-ram-240gb-ssd-wi-fi-windows-10-hdmi-webcam-wifi-957952","title":"FAST CHEAP CORE i3 i5 LAPTOP 8GB RAM 240GB SSD Wi-Fi Windows 10 HDMI Webcam WiFi","subtitle":null,"conditionGrade":"Refurbished","priceGbp":119.99,"compareAtGbp":null,"imageUrl":"https://i.ebayimg.com/images/g/6h0AAOSwna5ivwU9/s-l800.jpg","specLine":"i3 · 8GB · 240GB","inStock":true},{"productId":"d1acac82-9f19-40a1-b64e-c8d609b22318","slug":"dell-latitude-core-i7-10610u-8gb-ram-up-to-2tb-ssd-touch-fhd-windows-11-laptop-952274","title":"Dell Latitude CORE i7-10610U 8GB Ram up to 2TB SSD TOUCH FHD Windows 11 Laptop","subtitle":null,"conditionGrade":"Refurbished","priceGbp":249.99,"compareAtGbp":null,"imageUrl":"https://i.ebayimg.com/images/g/G6kAAOSwjgBoOdq-/s-l800.jpg","specLine":"i7-10610U · 8GB · 2TB","inStock":true},{"productId":"86a8c8d1-c8b1-44af-a4a8-ca9bba64657a","slug":"fast-laptop-core-i5-8th-gen-16gb-ram-1tb-ssd-win-11-webcam-warranty-wifi-909581","title":"FAST LAPTOP CORE i5 8th Gen 16GB RAM 1TB SSD Win 11 Webcam WARRANTY WIFI","subtitle":null,"conditionGrade":"Refurbished","priceGbp":209.99,"compareAtGbp":null,"imageUrl":"https://i.ebayimg.com/images/g/0o0AAOSw3PVkLqzU/s-l800.jpg","specLine":"i5 · 16GB · 1TB","inStock":true},{"productId":"3d3ce4ec-eaf6-40f8-ae7d-48cb998311e4","slug":"latest-fast-laptop-dell-intel-core-i5-10th-gen-16gb-ram-1tb-ssd-windows-11-pro-597727","title":"Latest Fast Laptop Dell Intel Core i5 10th Gen 16GB RAM 1TB SSD Windows 11 Pro","subtitle":null,"conditionGrade":"Refurbished","priceGbp":229.99,"compareAtGbp":null,"imageUrl":"https://i.ebayimg.com/images/g/OL0AAeSwPcVorboe/s-l800.jpg","specLine":"i5 · 16GB · 1TB","inStock":true},{"productId":"4abf00b6-1115-450f-88eb-1c6ed03a631a","slug":"dell-optiplex-3040-mini-tiny-pc-core-i5-6th-gen-8gb-ram-480gb-ssd-hdmi-win-11-926454","title":"DELL OptiPlex 3040 MINI Tiny PC Core i5 6th GEN 8GB RAM 480GB SSD HDMI Win 11","subtitle":null,"conditionGrade":"Refurbished","priceGbp":129.99,"compareAtGbp":null,"imageUrl":"https://i.ebayimg.com/images/g/l6gAAOSwesFjVq41/s-l800.jpg","specLine":"i5 · 8GB · 480GB","inStock":true},{"productId":"a5179d86-f6fb-432a-92ec-335b8bd78ebf","slug":"gaming-pc-core-i7-6th-gen-32gb-ram-1tb-ssd-nvidia-rtx-3060-win-11-wifi-836565","title":"Gaming PC Core i7 6Th Gen / 32GB RAM / 1TB SSD / Nvidia RTX 3060 Win 11 WiFi","subtitle":null,"conditionGrade":"Refurbished","priceGbp":725,"compareAtGbp":null,"imageUrl":"https://i.ebayimg.com/images/g/NgAAAOSwGUFnAmY0/s-l800.jpg","specLine":"i7 · RTX 3060 · 32GB · 1TB","inStock":true}],"total":406,"page":1,"pageSize":6,"totalPages":68}