{"items":[{"productId":"9574203e-6d96-453b-ae02-cd6becef5873","slug":"fast-cheap-core-i3-i5-laptop-8gb-ram-240gb-ssd-wi-fi-windows-10-hdmi-webcam-wifi-957952","title":"FAST CHEAP CORE i3 i5 LAPTOP 8GB RAM 240GB SSD Wi-Fi Windows 10 HDMI Webcam WiFi","subtitle":null,"conditionGrade":"Refurbished","priceGbp":119.99,"compareAtGbp":null,"imageUrl":"https://i.ebayimg.com/images/g/6h0AAOSwna5ivwU9/s-l800.jpg","specLine":"i3 · 8GB · 240GB","inStock":true},{"productId":"d1acac82-9f19-40a1-b64e-c8d609b22318","slug":"dell-latitude-core-i7-10610u-8gb-ram-up-to-2tb-ssd-touch-fhd-windows-11-laptop-952274","title":"Dell Latitude CORE i7-10610U 8GB Ram up to 2TB SSD TOUCH FHD Windows 11 Laptop","subtitle":null,"conditionGrade":"Refurbished","priceGbp":249.99,"compareAtGbp":null,"imageUrl":"https://i.ebayimg.com/images/g/G6kAAOSwjgBoOdq-/s-l800.jpg","specLine":"i7-10610U · 8GB · 2TB","inStock":true},{"productId":"86a8c8d1-c8b1-44af-a4a8-ca9bba64657a","slug":"fast-laptop-core-i5-8th-gen-16gb-ram-1tb-ssd-win-11-webcam-warranty-wifi-909581","title":"FAST LAPTOP CORE i5 8th Gen 16GB RAM 1TB SSD Win 11 Webcam WARRANTY WIFI","subtitle":null,"conditionGrade":"Refurbished","priceGbp":209.99,"compareAtGbp":null,"imageUrl":"https://i.ebayimg.com/images/g/0o0AAOSw3PVkLqzU/s-l800.jpg","specLine":"i5 · 16GB · 1TB","inStock":true},{"productId":"3d3ce4ec-eaf6-40f8-ae7d-48cb998311e4","slug":"latest-fast-laptop-dell-intel-core-i5-10th-gen-16gb-ram-1tb-ssd-windows-11-pro-597727","title":"Latest Fast Laptop Dell Intel Core i5 10th Gen 16GB RAM 1TB SSD Windows 11 Pro","subtitle":null,"conditionGrade":"Refurbished","priceGbp":229.99,"compareAtGbp":null,"imageUrl":"https://i.ebayimg.com/images/g/OL0AAeSwPcVorboe/s-l800.jpg","specLine":"i5 · 16GB · 1TB","inStock":true},{"productId":"4abf00b6-1115-450f-88eb-1c6ed03a631a","slug":"dell-optiplex-3040-mini-tiny-pc-core-i5-6th-gen-8gb-ram-480gb-ssd-hdmi-win-11-926454","title":"DELL OptiPlex 3040 MINI Tiny PC Core i5 6th GEN 8GB RAM 480GB SSD HDMI Win 11","subtitle":null,"conditionGrade":"Refurbished","priceGbp":129.99,"compareAtGbp":null,"imageUrl":"https://i.ebayimg.com/images/g/l6gAAOSwesFjVq41/s-l800.jpg","specLine":"i5 · 8GB · 480GB","inStock":true},{"productId":"a5179d86-f6fb-432a-92ec-335b8bd78ebf","slug":"gaming-pc-core-i7-6th-gen-32gb-ram-1tb-ssd-nvidia-rtx-3060-win-11-wifi-836565","title":"Gaming PC Core i7 6Th Gen / 32GB RAM / 1TB SSD / Nvidia RTX 3060 Win 11 WiFi","subtitle":null,"conditionGrade":"Refurbished","priceGbp":725,"compareAtGbp":null,"imageUrl":"https://i.ebayimg.com/images/g/NgAAAOSwGUFnAmY0/s-l800.jpg","specLine":"i7 · RTX 3060 · 32GB · 1TB","inStock":true},{"productId":"40fc8a36-3ca0-48ce-961c-83667edcc925","slug":"2-in-1-lenovo-thinkpad-x1-tablet-gen-3-core-i5-8th-gen-8gb-ram-1tb-webcam-touch-428298","title":"2 in 1 Lenovo ThinkPad X1 Tablet Gen 3 Core i5 8th Gen 8GB RAM 1TB Webcam Touch","subtitle":null,"conditionGrade":"Refurbished","priceGbp":299.99,"compareAtGbp":null,"imageUrl":"https://i.ebayimg.com/images/g/zJoAAOSwh4dmj~k6/s-l800.jpg","specLine":"i5 · 8GB","inStock":true},{"productId":"64e70b87-79ba-474c-96cc-aa47391519e5","slug":"cheap-19-20-22-23-24-27-tft-pc-computer-monitor-vga-hdmi-dvi-flat-screen-851781","title":"Cheap 19\" 20\" 22\" 23\" 24\" 27\" TFT PC Computer Monitor VGA HDMI DVI Flat Screen","subtitle":null,"conditionGrade":"Refurbished","priceGbp":29.99,"compareAtGbp":null,"imageUrl":"https://i.ebayimg.com/images/g/sv0AAOSw5opi5kXh/s-l800.jpg","specLine":null,"inStock":true},{"productId":"cca0185c-cf2f-4175-8c7c-12d907421d39","slug":"cheap-fast-top-brand-windows-10-11-laptop-8gb-ram-256gb-1tb-ssd-wifi-233387","title":"CHEAP FAST Top Brand Windows 10 / 11 Laptop  8GB Ram 256GB / 1TB SSD WIFI","subtitle":null,"conditionGrade":"Refurbished","priceGbp":119.99,"compareAtGbp":null,"imageUrl":"https://i.ebayimg.com/images/g/i9sAAOSw7RxkAUlD/s-l800.jpg","specLine":"8GB · 1TB","inStock":true},{"productId":"54dabc36-ed8f-44dc-839d-5e996fecb799","slug":"dell-latitude-14-1-intel-core-i3-10th-11th-gen-16gb-ram-1tb-ssd-win-11-hdmi-410702","title":"Dell Latitude 14.1\" Intel Core i3 10th & 11th Gen 16GB RAM 1TB SSD Win 11 HDMI","subtitle":null,"conditionGrade":"Refurbished","priceGbp":169.99,"compareAtGbp":null,"imageUrl":"https://i.ebayimg.com/images/g/WqoAAOSwu2ZnGPrG/s-l800.jpg","specLine":"i3 · 16GB · 1TB","inStock":true},{"productId":"00aca83e-d917-4285-8dca-8c8f6678ef86","slug":"touch-screen-dell-latitude-7410-laptop-core-i7-10610u-ram-16gb-1tb-ssd-win-11-265938","title":"Touch Screen Dell Latitude 7410 Laptop Core i7-10610U RAM 16GB 1TB SSD Win 11","subtitle":null,"conditionGrade":"Refurbished","priceGbp":249.99,"compareAtGbp":null,"imageUrl":"https://i.ebayimg.com/images/g/oZMAAOSwjCNoNdm-/s-l800.jpg","specLine":"i7-10610U · 1TB","inStock":true},{"productId":"b50e9331-9419-4bed-8e8b-db333d012d7b","slug":"asus-tuf-gaming-pc-ryzen-7-7800x3d-rtx-4090-24gb-64gb-ddr5-2tb-nvme-win-11-825639","title":"ASUS TUF Gaming PC RYZEN 7 7800X3D , RTX 4090 24GB 64GB DDR5 2TB NVMe WIN 11","subtitle":null,"conditionGrade":"Refurbished","priceGbp":3900,"compareAtGbp":null,"imageUrl":"https://i.ebayimg.com/images/g/O~4AAOSwoGxmWLV7/s-l800.jpg","specLine":"RYZEN 7 · RTX 4090 · 64GB · 2TB","inStock":true},{"productId":"c35f2de8-16c2-474b-9410-29fb32121413","slug":"joblot-x-9-genuine-cisco-glc-t-network-transceiver-module-30-1410-03-1000base-t-521858","title":"Joblot x 9 Genuine Cisco GLC-T Network Transceiver Module 30-1410-03 1000BASE-T","subtitle":null,"conditionGrade":"Refurbished","priceGbp":49.99,"compareAtGbp":null,"imageUrl":null,"specLine":null,"inStock":true},{"productId":"9999b744-8e0a-4b62-82a9-fcd5f9e9a34c","slug":"hp-a-rps1600-redundant-power-system-ac-100-120-200-240v-jg136a-648604","title":"HP A-RPS1600 Redundant Power System AC 100-120/200-240V - JG136A","subtitle":null,"conditionGrade":"Refurbished","priceGbp":99.99,"compareAtGbp":null,"imageUrl":null,"specLine":null,"inStock":true},{"productId":"fb06380e-fb91-46c7-ac25-2caee19bba47","slug":"ruckus-r510-indoor-802-11ac-wi-fi-access-point-350298","title":"Ruckus R510 Indoor 802.11ac Wi-Fi Access Point","subtitle":null,"conditionGrade":"Refurbished","priceGbp":29.99,"compareAtGbp":null,"imageUrl":null,"specLine":null,"inStock":true},{"productId":"ab2a8cca-a52f-470f-869d-78157687e2de","slug":"skb-iseries-utility-case-mipe-kit-21-black-case-box-use-for-laptop-or-equipments-911144","title":"SKB iSeries UTILITY CASE MIPE KIT 21 Black Case Box Use For Laptop or Equipments","subtitle":null,"conditionGrade":"Refurbished","priceGbp":119.99,"compareAtGbp":null,"imageUrl":null,"specLine":null,"inStock":true},{"productId":"52576aa8-069d-4999-aa83-223c2618711d","slug":"genuine-samsung-mlt-d1052l-toner-cartridge-ml1910-1915-2525-2580-scx-4600-4623-549846","title":"Genuine Samsung MLT-D1052L Toner Cartridge ML1910,1915,2525,2580 SCX 4600,4623","subtitle":null,"conditionGrade":"Refurbished","priceGbp":54.99,"compareAtGbp":null,"imageUrl":null,"specLine":null,"inStock":true},{"productId":"6cd90eec-689c-4ee3-8bf2-b1b8be6c9ddd","slug":"kramer-vs-81h-8x1-hdmi-switcher-rack-mountable-rs-232-ethernet-303388","title":"KRAMER VS-81H 8x1 HDMI Switcher Rack-Mountable RS-232 Ethernet","subtitle":null,"conditionGrade":"Refurbished","priceGbp":179.99,"compareAtGbp":null,"imageUrl":null,"specLine":null,"inStock":true},{"productId":"57c236b1-5004-4fdd-be34-4a5b704b8873","slug":"extreme-networks-ws-ap3935i-row-indoor-access-point-464412","title":"Extreme Networks WS-AP3935i-ROW Indoor Access Point","subtitle":null,"conditionGrade":"Refurbished","priceGbp":39.99,"compareAtGbp":null,"imageUrl":null,"specLine":null,"inStock":true},{"productId":"4e0259ae-d026-4507-afa6-a0c010082df4","slug":"cisco-asa-ic-6ge-sfp-b-interface-card-6-port-ge-sfp-sx-lx-for-asa-5525-x-5525-183586","title":"CISCO ASA-IC-6GE-SFP-B Interface Card 6 port GE SFP, SX/LX for ASA 5525-X 5525","subtitle":null,"conditionGrade":"Refurbished","priceGbp":99.99,"compareAtGbp":null,"imageUrl":null,"specLine":null,"inStock":true}],"total":406,"page":1,"pageSize":20,"totalPages":21}